%YAML 1.1
%TAG !u! tag:unity3d.com,2011:
--- !u!114 &-5061488893505171319
MonoBehaviour:
  m_ObjectHideFlags: 11
  m_CorrespondingSourceObject: {fileID: 0}
  m_PrefabInstance: {fileID: 0}
  m_PrefabAsset: {fileID: 0}
  m_GameObject: {fileID: 0}
  m_Enabled: 1
  m_EditorHideFlags: 0
  m_Script: {fileID: 11500000, guid: d0353a89b1f911e48b9e16bdc9f2e058, type: 3}
  m_Name: 
  m_EditorClassIdentifier: 
  version: 1
--- !u!21 &2100000
Material:
  serializedVersion: 6
  m_ObjectHideFlags: 0
  m_CorrespondingSourceObject: {fileID: 0}
  m_PrefabInstance: {fileID: 0}
  m_PrefabAsset: {fileID: 0}
  m_Name: Ground_Mat
  m_Shader: {fileID: 4800000, guid: 933532a4fcc9baf4fa0491de14d08ed7, type: 3}
  m_ShaderKeywords: _METALLICSPECGLOSSMAP _NORMALMAP _OCCLUSIONMAP
  m_LightmapFlags: 4
  m_EnableInstancingVariants: 0
  m_DoubleSidedGI: 0
  m_CustomRenderQueue: 2050
  stringTagMap:
    RenderType: Opaque
  disabledShaderPasses: []
  m_SavedProperties:
    serializedVersion: 3
    m_TexEnvs:
    - _Albedo01:
        m_Texture: {fileID: 2800000, guid: a1e3d76571a1bd041b244add9a3cf433, type: 3}
        m_Scale: {x: 1, y: 1}
        m_Offset: {x: 0, y: 0}
    - _Albedo02:
        m_Texture: {fileID: 2800000, guid: fd467bbf94d53bb499d3c3075cb021c9, type: 3}
        m_Scale: {x: 1, y: 1}
        m_Offset: {x: 0, y: 0}
    - _Albedo03:
        m_Texture: {fileID: 2800000, guid: 8eb7c22efef95d4419727a0fd3a6c6a3, type: 3}
        m_Scale: {x: 1, y: 1}
        m_Offset: {x: 0, y: 0}
    - _Albedo04:
        m_Texture: {fileID: 0}
        m_Scale: {x: 1, y: 1}
        m_Offset: {x: 0, y: 0}
    - _BaseMap:
        m_Texture: {fileID: 2800000, guid: fd467bbf94d53bb499d3c3075cb021c9, type: 3}
        m_Scale: {x: 1, y: 1}
        m_Offset: {x: 0, y: 0}
    - _BumpMap:
        m_Texture: {fileID: 2800000, guid: 0029a2ffb9c75794b8d16355e8ef09c4, type: 3}
        m_Scale: {x: 1, y: 1}
        m_Offset: {x: 0, y: 0}
    - _DetailAlbedoMap:
        m_Texture: {fileID: 0}
        m_Scale: {x: 1, y: 1}
        m_Offset: {x: 0, y: 0}
    - _DetailMask:
        m_Texture: {fileID: 0}
        m_Scale: {x: 1, y: 1}
        m_Offset: {x: 0, y: 0}
    - _DetailNormalMap:
        m_Texture: {fileID: 0}
        m_Scale: {x: 1, y: 1}
        m_Offset: {x: 0, y: 0}
    - _EmissionMap:
        m_Texture: {fileID: 0}
        m_Scale: {x: 1, y: 1}
        m_Offset: {x: 0, y: 0}
    - _MRHAO01:
        m_Texture: {fileID: 2800000, guid: ff7a18657252a6644a9c737e1f6d8207, type: 3}
        m_Scale: {x: 1, y: 1}
        m_Offset: {x: 0, y: 0}
    - _MRHAO02:
        m_Texture: {fileID: 2800000, guid: 959fe93954fd6c349a6274a09ed4e1e5, type: 3}
        m_Scale: {x: 1, y: 1}
        m_Offset: {x: 0, y: 0}
    - _MRHAO03:
        m_Texture: {fileID: 2800000, guid: 91c764a7acc458d479b088d2861c476c, type: 3}
        m_Scale: {x: 1, y: 1}
        m_Offset: {x: 0, y: 0}
    - _MRHAO04:
        m_Texture: {fileID: 0}
        m_Scale: {x: 1, y: 1}
        m_Offset: {x: 0, y: 0}
    - _MainTex:
        m_Texture: {fileID: 2800000, guid: fd467bbf94d53bb499d3c3075cb021c9, type: 3}
        m_Scale: {x: 1, y: 1}
        m_Offset: {x: 0, y: 0}
    - _MetallicGlossMap:
        m_Texture: {fileID: 2800000, guid: 959fe93954fd6c349a6274a09ed4e1e5, type: 3}
        m_Scale: {x: 1, y: 1}
        m_Offset: {x: 0, y: 0}
    - _MetallicRough:
        m_Texture: {fileID: 2800000, guid: 3eef31de83d5ff44d84d046a259e1044, type: 3}
        m_Scale: {x: 1, y: 1}
        m_Offset: {x: 0, y: 0}
    - _Noise:
        m_Texture: {fileID: 2800000, guid: 039619e8304ca2642abd7f060be738f4, type: 3}
        m_Scale: {x: 1, y: 1}
        m_Offset: {x: 0, y: 0}
    - _Normal01:
        m_Texture: {fileID: 2800000, guid: 8966a67eba656384b8870d6cac30864f, type: 3}
        m_Scale: {x: 1, y: 1}
        m_Offset: {x: 0, y: 0}
    - _Normal01Detail:
        m_Texture: {fileID: 2800000, guid: 8966a67eba656384b8870d6cac30864f, type: 3}
        m_Scale: {x: 1, y: 1}
        m_Offset: {x: 0, y: 0}
    - _Normal02:
        m_Texture: {fileID: 2800000, guid: 0029a2ffb9c75794b8d16355e8ef09c4, type: 3}
        m_Scale: {x: 1, y: 1}
        m_Offset: {x: 0, y: 0}
    - _Normal02Detail:
        m_Texture: {fileID: 2800000, guid: ba636111ccf91df469cf93c2e9c9bb42, type: 3}
        m_Scale: {x: 1, y: 1}
        m_Offset: {x: 0, y: 0}
    - _Normal03:
        m_Texture: {fileID: 2800000, guid: 12be41cd2643a5e41b604f470c2d35a8, type: 3}
        m_Scale: {x: 1, y: 1}
        m_Offset: {x: 0, y: 0}
    - _Normal04:
        m_Texture: {fileID: 0}
        m_Scale: {x: 1, y: 1}
        m_Offset: {x: 0, y: 0}
    - _OcclusionMap:
        m_Texture: {fileID: 2800000, guid: 1c0d44c4e761653459dbec2e39672ae3, type: 3}
        m_Scale: {x: 1, y: 1}
        m_Offset: {x: 0, y: 0}
    - _ParallaxMap:
        m_Texture: {fileID: 0}
        m_Scale: {x: 1, y: 1}
        m_Offset: {x: 0, y: 0}
    - _Ripple:
        m_Texture: {fileID: 0}
        m_Scale: {x: 1, y: 1}
        m_Offset: {x: 0, y: 0}
    - _SpecGlossMap:
        m_Texture: {fileID: 0}
        m_Scale: {x: 1, y: 1}
        m_Offset: {x: 0, y: 0}
    - _TopAlbedo:
        m_Texture: {fileID: 2800000, guid: 75353587560c3c648a0ad3535b6b7991, type: 3}
        m_Scale: {x: 1, y: 1}
        m_Offset: {x: 0, y: 0}
    - _TopMetallicRough:
        m_Texture: {fileID: 0}
        m_Scale: {x: 1, y: 1}
        m_Offset: {x: 0, y: 0}
    - _TopNormal:
        m_Texture: {fileID: 2800000, guid: b5e52e512494f434c88a1675f0e9361d, type: 3}
        m_Scale: {x: 1, y: 1}
        m_Offset: {x: 0, y: 0}
    - _TopNormal2:
        m_Texture: {fileID: 2800000, guid: 309477ffa171bf54abfaf42808351d9d, type: 3}
        m_Scale: {x: 1, y: 1}
        m_Offset: {x: 0, y: 0}
    - _WaterRoughness:
        m_Texture: {fileID: 2800000, guid: 6b58fc510e931ca42829bb59ddd389c9, type: 3}
        m_Scale: {x: 1, y: 1}
        m_Offset: {x: 0, y: 0}
    m_Floats:
    - _AlphaClip: 0
    - _Blend: 0
    - _BumpScale: 1
    - _Cull: 2
    - _Cutoff: 0.5
    - _DetailNormalMapScale: 1
    - _DstBlend: 0
    - _EnvironmentReflections: 1
    - _Falloff01: 0.669
    - _Falloff02: 0.27
    - _Falloff03: 0
    - _Falloff04: 0.597
    - _GlossMapScale: 1
    - _Glossiness: 1
    - _GlossyReflections: 1
    - _InvFade: 1
    - _Metallic: 1
    - _Mode: 0
    - _OcclusionStrength: 0.878
    - _Parallax: 0.02
    - _ParallaxStrength: 0.0063
    - _QueueOffset: 0
    - _ReceiveShadows: 1
    - _Smoothness: 1
    - _SmoothnessTextureChannel: 0
    - _SpecularHighlights: 1
    - _SrcBlend: 1
    - _Surface: 0
    - _TextureScale: 0.25
    - _TextureScale01: 0.2
    - _TextureScale02: 0.1
    - _TextureScale03: 0.5
    - _TextureScale04: 0.1
    - _TopGlossiness: 0
    - _TopMetallic: 0
    - _UVOffset: 5
    - _UVSec: 0
    - _WaterEdge: 0.395
    - _WorkflowMode: 1
    - _ZWrite: 1
    - _offset: 0.5
    - _waterLevel: 0.679
    m_Colors:
    - _BaseColor: {r: 0.85294116, g: 0.7941177, b: 0.6397059, a: 1}
    - _Color: {r: 0.85294116, g: 0.7941177, b: 0.6397059, a: 1}
    - _Color2: {r: 0, g: 0, b: 0, a: 1}
    - _EmissionColor: {r: 0, g: 0, b: 0, a: 1}
    - _GrassColor: {r: 1, g: 1, b: 1, a: 1}
    - _SpecColor: {r: 0.19999996, g: 0.19999996, b: 0.19999996, a: 1}
    - _TintColor: {r: 0.5, g: 0.5, b: 0.5, a: 0.5}
    - _WaterColor: {r: 0.82774115, g: 0.8396226, b: 0.8288213, a: 1}
