%YAML 1.1
%TAG !u! tag:unity3d.com,2011:
--- !u!1 &5903788921281069474
GameObject:
  m_ObjectHideFlags: 0
  m_CorrespondingSourceObject: {fileID: 0}
  m_PrefabInstance: {fileID: 0}
  m_PrefabAsset: {fileID: 0}
  serializedVersion: 6
  m_Component:
  - component: {fileID: 4800105808398399645}
  - component: {fileID: 6622970513523677977}
  m_Layer: 0
  m_Name: UnitsManager
  m_TagString: Untagged
  m_Icon: {fileID: 0}
  m_NavMeshLayer: 0
  m_StaticEditorFlags: 4294967295
  m_IsActive: 1
--- !u!4 &4800105808398399645
Transform:
  m_ObjectHideFlags: 0
  m_CorrespondingSourceObject: {fileID: 0}
  m_PrefabInstance: {fileID: 0}
  m_PrefabAsset: {fileID: 0}
  m_GameObject: {fileID: 5903788921281069474}
  m_LocalRotation: {x: 0, y: 0, z: 0, w: 1}
  m_LocalPosition: {x: 0, y: 0, z: 0}
  m_LocalScale: {x: 1, y: 1, z: 1}
  m_Children: []
  m_Father: {fileID: 0}
  m_RootOrder: 0
  m_LocalEulerAnglesHint: {x: 0, y: 0, z: 0}
--- !u!114 &6622970513523677977
MonoBehaviour:
  m_ObjectHideFlags: 0
  m_CorrespondingSourceObject: {fileID: 0}
  m_PrefabInstance: {fileID: 0}
  m_PrefabAsset: {fileID: 0}
  m_GameObject: {fileID: 5903788921281069474}
  m_Enabled: 1
  m_EditorHideFlags: 0
  m_Script: {fileID: 11500000, guid: f0970ff1b429c5a40939c8ce3bf8f7b1, type: 3}
  m_Name: 
  m_EditorClassIdentifier: 
  listOfUnits:
  - {fileID: 11400000, guid: ab9a04c288272694ba458d3e167d27bd, type: 2}
  - {fileID: 11400000, guid: 9b7faac89531f7d4fbafacf2fde4d74f, type: 2}
  - {fileID: 11400000, guid: ad2244f182cb29346a58550c6c6fe2b1, type: 2}
