%YAML 1.1
%TAG !u! tag:unity3d.com,2011:
--- !u!1 &5341276797898981891
GameObject:
  m_ObjectHideFlags: 0
  m_CorrespondingSourceObject: {fileID: 0}
  m_PrefabInstance: {fileID: 0}
  m_PrefabAsset: {fileID: 0}
  serializedVersion: 6
  m_Component:
  - component: {fileID: 5713109216392241890}
  - component: {fileID: 6110364641448935108}
  - component: {fileID: 7651937285933813053}
  m_Layer: 0
  m_Name: Collision
  m_TagString: Untagged
  m_Icon: {fileID: 0}
  m_NavMeshLayer: 0
  m_StaticEditorFlags: 0
  m_IsActive: 1
--- !u!4 &5713109216392241890
Transform:
  m_ObjectHideFlags: 0
  m_CorrespondingSourceObject: {fileID: 0}
  m_PrefabInstance: {fileID: 0}
  m_PrefabAsset: {fileID: 0}
  m_GameObject: {fileID: 5341276797898981891}
  m_LocalRotation: {x: -0, y: -0, z: -0, w: 1}
  m_LocalPosition: {x: 0, y: 1.8485397, z: -1.02}
  m_LocalScale: {x: 3, y: 4, z: 5}
  m_Children: []
  m_Father: {fileID: 8402206165265540417}
  m_RootOrder: 1
  m_LocalEulerAnglesHint: {x: 0, y: 0, z: 0}
--- !u!33 &6110364641448935108
MeshFilter:
  m_ObjectHideFlags: 0
  m_CorrespondingSourceObject: {fileID: 0}
  m_PrefabInstance: {fileID: 0}
  m_PrefabAsset: {fileID: 0}
  m_GameObject: {fileID: 5341276797898981891}
  m_Mesh: {fileID: 10202, guid: 0000000000000000e000000000000000, type: 0}
--- !u!23 &7651937285933813053
MeshRenderer:
  m_ObjectHideFlags: 0
  m_CorrespondingSourceObject: {fileID: 0}
  m_PrefabInstance: {fileID: 0}
  m_PrefabAsset: {fileID: 0}
  m_GameObject: {fileID: 5341276797898981891}
  m_Enabled: 0
  m_CastShadows: 1
  m_ReceiveShadows: 1
  m_DynamicOccludee: 1
  m_MotionVectors: 1
  m_LightProbeUsage: 1
  m_ReflectionProbeUsage: 1
  m_RayTracingMode: 2
  m_RenderingLayerMask: 1
  m_RendererPriority: 0
  m_Materials:
  - {fileID: 2100000, guid: 31321ba15b8f8eb4c954353edc038b1d, type: 2}
  m_StaticBatchInfo:
    firstSubMesh: 0
    subMeshCount: 0
  m_StaticBatchRoot: {fileID: 0}
  m_ProbeAnchor: {fileID: 0}
  m_LightProbeVolumeOverride: {fileID: 0}
  m_ScaleInLightmap: 1
  m_ReceiveGI: 1
  m_PreserveUVs: 0
  m_IgnoreNormalsForChartDetection: 0
  m_ImportantGI: 0
  m_StitchLightmapSeams: 1
  m_SelectedEditorRenderState: 3
  m_MinimumChartSize: 4
  m_AutoUVMaxDistance: 0.5
  m_AutoUVMaxAngle: 89
  m_LightmapParameters: {fileID: 0}
  m_SortingLayerID: 0
  m_SortingLayer: 0
  m_SortingOrder: 0
--- !u!1001 &5955461403476709726
PrefabInstance:
  m_ObjectHideFlags: 0
  serializedVersion: 2
  m_Modification:
    m_TransformParent: {fileID: 0}
    m_Modifications:
    - target: {fileID: 1914504040300044411, guid: 34a9d7ce0c9e9334181a5ef89e7b1f21,
        type: 3}
      propertyPath: m_RootOrder
      value: 2
      objectReference: {fileID: 0}
    - target: {fileID: 2440923671576778527, guid: 34a9d7ce0c9e9334181a5ef89e7b1f21,
        type: 3}
      propertyPath: m_Name
      value: Building_MagicTower_BP
      objectReference: {fileID: 0}
    - target: {fileID: 2755267743928857631, guid: 34a9d7ce0c9e9334181a5ef89e7b1f21,
        type: 3}
      propertyPath: m_LocalPosition.x
      value: -16.38
      objectReference: {fileID: 0}
    - target: {fileID: 2755267743928857631, guid: 34a9d7ce0c9e9334181a5ef89e7b1f21,
        type: 3}
      propertyPath: m_LocalPosition.y
      value: 0
      objectReference: {fileID: 0}
    - target: {fileID: 2755267743928857631, guid: 34a9d7ce0c9e9334181a5ef89e7b1f21,
        type: 3}
      propertyPath: m_LocalPosition.z
      value: -57.01536
      objectReference: {fileID: 0}
    - target: {fileID: 2755267743928857631, guid: 34a9d7ce0c9e9334181a5ef89e7b1f21,
        type: 3}
      propertyPath: m_LocalRotation.x
      value: 0
      objectReference: {fileID: 0}
    - target: {fileID: 2755267743928857631, guid: 34a9d7ce0c9e9334181a5ef89e7b1f21,
        type: 3}
      propertyPath: m_LocalRotation.y
      value: 0
      objectReference: {fileID: 0}
    - target: {fileID: 2755267743928857631, guid: 34a9d7ce0c9e9334181a5ef89e7b1f21,
        type: 3}
      propertyPath: m_LocalRotation.z
      value: 0
      objectReference: {fileID: 0}
    - target: {fileID: 2755267743928857631, guid: 34a9d7ce0c9e9334181a5ef89e7b1f21,
        type: 3}
      propertyPath: m_LocalRotation.w
      value: 1
      objectReference: {fileID: 0}
    - target: {fileID: 2755267743928857631, guid: 34a9d7ce0c9e9334181a5ef89e7b1f21,
        type: 3}
      propertyPath: m_RootOrder
      value: 0
      objectReference: {fileID: 0}
    - target: {fileID: 2755267743928857631, guid: 34a9d7ce0c9e9334181a5ef89e7b1f21,
        type: 3}
      propertyPath: m_LocalEulerAnglesHint.x
      value: 0
      objectReference: {fileID: 0}
    - target: {fileID: 2755267743928857631, guid: 34a9d7ce0c9e9334181a5ef89e7b1f21,
        type: 3}
      propertyPath: m_LocalEulerAnglesHint.y
      value: 0
      objectReference: {fileID: 0}
    - target: {fileID: 2755267743928857631, guid: 34a9d7ce0c9e9334181a5ef89e7b1f21,
        type: 3}
      propertyPath: m_LocalEulerAnglesHint.z
      value: 0
      objectReference: {fileID: 0}
    - target: {fileID: 2852456634376098173, guid: 34a9d7ce0c9e9334181a5ef89e7b1f21,
        type: 3}
      propertyPath: m_SceneBindings.Array.data[0].value
      value: 
      objectReference: {fileID: 0}
    - target: {fileID: 2852456634376098173, guid: 34a9d7ce0c9e9334181a5ef89e7b1f21,
        type: 3}
      propertyPath: m_SceneBindings.Array.data[2].value
      value: 
      objectReference: {fileID: 0}
    - target: {fileID: 2852456634376098173, guid: 34a9d7ce0c9e9334181a5ef89e7b1f21,
        type: 3}
      propertyPath: m_SceneBindings.Array.data[3].value
      value: 
      objectReference: {fileID: 0}
    - target: {fileID: 2852456634376098173, guid: 34a9d7ce0c9e9334181a5ef89e7b1f21,
        type: 3}
      propertyPath: m_SceneBindings.Array.data[4].value
      value: 
      objectReference: {fileID: 0}
    - target: {fileID: 2852456634376098173, guid: 34a9d7ce0c9e9334181a5ef89e7b1f21,
        type: 3}
      propertyPath: m_SceneBindings.Array.data[5].value
      value: 
      objectReference: {fileID: 0}
    - target: {fileID: 2852456634376098173, guid: 34a9d7ce0c9e9334181a5ef89e7b1f21,
        type: 3}
      propertyPath: m_SceneBindings.Array.data[6].value
      value: 
      objectReference: {fileID: 0}
    - target: {fileID: 2852456634376098173, guid: 34a9d7ce0c9e9334181a5ef89e7b1f21,
        type: 3}
      propertyPath: m_ExposedReferences.m_References.Array.data[0].second
      value: 
      objectReference: {fileID: 0}
    - target: {fileID: 2852456634806182030, guid: 34a9d7ce0c9e9334181a5ef89e7b1f21,
        type: 3}
      propertyPath: m_Materials.Array.data[0]
      value: 
      objectReference: {fileID: 0}
    - target: {fileID: 2852456634855151982, guid: 34a9d7ce0c9e9334181a5ef89e7b1f21,
        type: 3}
      propertyPath: m_Materials.Array.data[0]
      value: 
      objectReference: {fileID: 0}
    - target: {fileID: 2852456635279734237, guid: 34a9d7ce0c9e9334181a5ef89e7b1f21,
        type: 3}
      propertyPath: m_Materials.Array.data[0]
      value: 
      objectReference: {fileID: 0}
    - target: {fileID: 2852456635461394396, guid: 34a9d7ce0c9e9334181a5ef89e7b1f21,
        type: 3}
      propertyPath: m_Materials.Array.data[0]
      value: 
      objectReference: {fileID: 0}
    - target: {fileID: 2852456635582565568, guid: 34a9d7ce0c9e9334181a5ef89e7b1f21,
        type: 3}
      propertyPath: m_Materials.Array.data[0]
      value: 
      objectReference: {fileID: 0}
    m_RemovedComponents:
    - {fileID: 2251964512379727058, guid: 34a9d7ce0c9e9334181a5ef89e7b1f21, type: 3}
    - {fileID: 2610217102831082100, guid: 34a9d7ce0c9e9334181a5ef89e7b1f21, type: 3}
  m_SourcePrefab: {fileID: 100100000, guid: 34a9d7ce0c9e9334181a5ef89e7b1f21, type: 3}
--- !u!4 &8402206165265540417 stripped
Transform:
  m_CorrespondingSourceObject: {fileID: 2755267743928857631, guid: 34a9d7ce0c9e9334181a5ef89e7b1f21,
    type: 3}
  m_PrefabInstance: {fileID: 5955461403476709726}
  m_PrefabAsset: {fileID: 0}
